{
  "formatVersion": 1,
  "database": {
    "version": 1,
    "identityHash": "bcd5de5699e4dbdf3bafc6e14314cdd9",
    "entities": [
      {
        "tableName": "user",
        "createSql": "CREATE TABLE IF NOT EXISTS `${TABLE_NAME}` (`id` INTEGER NOT NULL, `name` TEXT NOT NULL COLLATE NOCASE, PRIMARY KEY(`id`))",
        "fields": [
          {
            "fieldPath": "id",
            "columnName": "id",
            "affinity": "INTEGER",
            "notNull": true
          },
          {
            "fieldPath": "name",
            "columnName": "name",
            "affinity": "TEXT",
            "notNull": true
          }
        ],
        "primaryKey": {
          "columnNames": [
            "id"
          ],
          "autoGenerate": false
        },
        "indices": [],
        "foreignKeys": []
      },
      {
        "tableName": "message",
        "createSql": "CREATE TABLE IF NOT EXISTS `${TABLE_NAME}` (`id` INTEGER NOT NULL, `text` TEXT NOT NULL, `sender_id` INTEGER NOT NULL, `sending_date` INTEGER NOT NULL, PRIMARY KEY(`id`), FOREIGN KEY(`sender_id`) REFERENCES `user`(`id`) ON UPDATE NO ACTION ON DELETE NO ACTION )",
        "fields": [
          {
            "fieldPath": "id",
            "columnName": "id",
            "affinity": "INTEGER",
            "notNull": true
          },
          {
            "fieldPath": "text",
            "columnName": "text",
            "affinity": "TEXT",
            "notNull": true
          },
          {
            "fieldPath": "senderId",
            "columnName": "sender_id",
            "affinity": "INTEGER",
            "notNull": true
          },
          {
            "fieldPath": "sentAt",
            "columnName": "sending_date",
            "affinity": "INTEGER",
            "notNull": true
          }
        ],
        "primaryKey": {
          "columnNames": [
            "id"
          ],
          "autoGenerate": false
        },
        "indices": [
          {
            "name": "index_message_sending_date",
            "unique": true,
            "columnNames": [
              "sending_date"
            ],
            "createSql": "CREATE UNIQUE INDEX IF NOT EXISTS `index_message_sending_date` ON `${TABLE_NAME}` (`sending_date`)"
          },
          {
            "name": "index_message_sender_id",
            "unique": false,
            "columnNames": [
              "sender_id"
            ],
            "createSql": "CREATE INDEX IF NOT EXISTS `index_message_sender_id` ON `${TABLE_NAME}` (`sender_id`)"
          }
        ],
        "foreignKeys": [
          {
            "table": "user",
            "onDelete": "NO ACTION",
            "onUpdate": "NO ACTION",
            "columns": [
              "sender_id"
            ],
            "referencedColumns": [
              "id"
            ]
          }
        ]
      }
    ],
    "views": [],
    "setupQueries": [
      "CREATE TABLE IF NOT EXISTS room_master_table (id INTEGER PRIMARY KEY,identity_hash TEXT)",
      "INSERT OR REPLACE INTO room_master_table (id,identity_hash) VALUES(42, 'bcd5de5699e4dbdf3bafc6e14314cdd9')"
    ]
  }
}